{
  "project_info": {
    "project_number": "194700823275",
    "project_id": "cat-soldier",
    "storage_bucket": "cat-soldier.appspot.com"
  },
  "client": [
    {
      "client_info": {
        "mobilesdk_app_id": "1:194700823275:android:51c98ea5eda3fef7720cae",
        "android_client_info": {
          "package_name": "com.pdkm.catsoldier"
        }
      },
      "oauth_client": [
        {
          "client_id": "194700823275-idacutjd49dip7a7o8nrr7caqf2ivt7v.apps.googleusercontent.com",
          "client_type": 1,
          "android_info": {
            "package_name": "com.pdkm.catsoldier",
            "certificate_hash": "6afd26e886526f51011adc65adced993b715bb6c"
          }
        },
        {
          "client_id": "194700823275-v507l0uvca1qupr3r3pho7d873ggudr4.apps.googleusercontent.com",
          "client_type": 3
        }
      ],
      "api_key": [
        {
          "current_key": "AIzaSyA1qHIKl0bSSCBW8bGRSnonwItw2ZVlXnc"
        }
      ],
      "services": {
        "appinvite_service": {
          "other_platform_oauth_client": [
            {
              "client_id": "194700823275-v507l0uvca1qupr3r3pho7d873ggudr4.apps.googleusercontent.com",
              "client_type": 3
            }
          ]
        }
      }
    }
  ],
  "configuration_version": "1"
}